…
`tidymeta` doesn’t actually do meta-analysis; it unifies existing tools
with the tidyverse. The benefit of this approach is that you can do
meta-analyses with tidy tools in mind. For example, if you want to
conduct a sub-group analysis, you can use the `group_by()` function from
`dplyr`. Here, `group` is a variable with information about study
design.

``` r
ma <- iud_cxca %>% 
  group_by(group) %>% 
  meta_analysis(yi = lnes, sei = selnes, slab = study_name, exponentiate = TRUE)

ma
#> # A tibble: 21 x 11
#>    group    study     type  estimate std.error statistic  p.value conf.low
#>    <fct>    <chr>     <chr>    <dbl>     <dbl>     <dbl>    <dbl>    <dbl>
#>  1 Nested … Roura, 2… study    0.600    0.354     -1.44  NA          0.300
#>  2 Nested … Subgroup… summ…    0.600    0.354     -1.44   0.149      0.300
#>  3 Populat… Lassise,… study    0.800    0.223     -0.999 NA          0.516
#>  4 Populat… Li, 2000  study    0.890    0.0999    -1.17  NA          0.732
#>  5 Populat… Shields,… study    0.500    0.257     -2.70  NA          0.302
#>  6 Populat… Castells… study    0.630    0.262     -1.77  NA          0.377
#>  7 Populat… Castells… study    0.450    0.205     -3.90  NA          0.301
#>  8 Populat… Subgroup… summ…    0.655    0.146     -2.90   0.00374    0.492
#>  9 Clinic-… Brinton,… study    0.690    0.150     -2.47  NA          0.514
#> 10 Clinic-… Parazzin… study    0.600    0.331     -1.54  NA          0.313
#> # ... with 11 more rows, and 3 more variables: conf.high <dbl>,
#> #   meta <list>, weight <dbl>
```
…
